{
   "abstract" : "Mock database driver for testing",
   "author" : [
      "Chris Winters <CWINTERS@cpan.org>",
      "Stevan Little <STEVAN@cpan.org>",
      "Rob Kinyon <RKINYON@cpan.org>",
      "Mariano Wahlmann <DICHI@cpan.org>",
      "Jason Cooper <JLCOOPER@cpan.org>"
   ],
   "dynamic_config" : 0,
   "generated_by" : "Minilla/v3.1.6, CPAN::Meta::Converter version 2.150005",
   "license" : [
      "perl_5"
   ],
   "meta-spec" : {
      "url" : "http://search.cpan.org/perldoc?CPAN::Meta::Spec",
      "version" : "2"
   },
   "name" : "DBD-Mock",
   "no_index" : {
      "directory" : [
         "t",
         "xt",
         "inc",
         "share",
         "eg",
         "examples",
         "author",
         "builder"
      ]
   },
   "prereqs" : {
      "build" : {
         "requires" : {
            "Test::Exception" : "0.31",
            "Test::More" : "0.47"
         }
      },
      "configure" : {
         "requires" : {
            "Module::Build::Tiny" : "0.035"
         }
      },
      "develop" : {
         "requires" : {
            "Test::CPAN::Meta" : "0",
            "Test::MinimumVersion::Fast" : "0.04",
            "Test::PAUSE::Permissions" : "0.07",
            "Test::Pod" : "1.41",
            "Test::Spellunker" : "v0.2.7"
         }
      },
      "runtime" : {
         "requires" : {
            "DBI" : "1.3",
            "List::Util" : "1.27",
            "perl" : "5.008001"
         }
      }
   },
   "release_status" : "unstable",
   "resources" : {
      "homepage" : "https://gitlab.com/scrapheap/DBD-Mock",
      "repository" : {
         "type" : "git",
         "url" : "git://gitlab.com/scrapheap/DBD-Mock.git",
         "web" : "https://gitlab.com/scrapheap/DBD-Mock"
      }
   },
   "version" : "1.53",
   "x_authority" : "cpan:JLCOOPER",
   "x_contributors" : [
      "Chisel <CHISEL@cpan.org>",
      "Dave Rolsky <DROLSKY@cpan.org>",
      "Frédéric Brière <FBRIERE@cpan.org>",
      "Gines R <ginesr@gmail.com>",
      "Max Carey <MHC@cpan.org>",
      "gregor herrmann <gregoa@debian.org>",
      "wu-lee <git.wu-lee@noodlefactory.co.uk>"
   ],
   "x_serialization_backend" : "JSON::PP version 2.27300_01",
   "x_static_install" : 1
}
